<?xml version="1.0" encoding="utf-8"?>
<!-- Generator: Adobe Illustrator 21.1.0, SVG Export Plug-In . SVG Version: 6.00 Build 0)  -->
<svg version="1.1" id="Слой_1" xmlns="http://www.w3.org/2000/svg" xmlns:xlink="http://www.w3.org/1999/xlink" x="0px" y="0px"
	 viewBox="0 0 40 40" style="enable-background:new 0 0 40 40;" xml:space="preserve">
<style type="text/css">
	
		.st0{fill-rule:evenodd;clip-rule:evenodd;fill:none;stroke:#a4a4a4;stroke-width:1.4998;stroke-linecap:round;stroke-linejoin:round;stroke-miterlimit:22.9256;}
	
		.st1{fill-rule:evenodd;clip-rule:evenodd;fill:none;stroke:#a4a4a4;stroke-width:2.3998;stroke-linecap:round;stroke-linejoin:round;stroke-miterlimit:22.9256;}
</style>
<line class="st0" x1="17" y1="15.5" x2="23" y2="15.5"/>
<line class="st0" x1="17" y1="21" x2="23" y2="21"/>
<path class="st1" d="M14,9h12c2.8,0,5,2.3,5,5l0,9c0,2.7-2.3,5-5,5h-4l-5,3v-3h-3c-2.7,0-5-2.2-5-5l0-9C9,11.2,11.2,9,14,9z"/>
</svg>
