<?xml version="1.0" encoding="utf-8"?>
<!-- Generator: Adobe Illustrator 21.1.0, SVG Export Plug-In . SVG Version: 6.00 Build 0)  -->
<svg version="1.1" id="Слой_1" xmlns="http://www.w3.org/2000/svg" xmlns:xlink="http://www.w3.org/1999/xlink" x="0px" y="0px"
	 viewBox="0 0 40 40" style="enable-background:new 0 0 40 40;" xml:space="preserve">
<style type="text/css">
	.st0{fill-rule:evenodd;clip-rule:evenodd;fill:#ff646f;}
</style>
<path class="st0" d="M15,11.3h10c1,0,2,0.4,2.6,1.1c0.7,0.7,1.1,1.6,1.1,2.6v10c0,1-0.4,2-1.1,2.6C27,28.3,26,28.8,25,28.8H15
	c-1,0-2-0.4-2.6-1.1l0,0c-0.7-0.7-1.1-1.6-1.1-2.6V15c0-1,0.4-2,1.1-2.6l0,0C13,11.7,14,11.3,15,11.3L15,11.3z M14.1,13L20,18
	l5.9-5.1c-0.3-0.1-0.6-0.2-0.9-0.2H15C14.7,12.8,14.4,12.8,14.1,13L14.1,13z M27,14l-6.5,5.6c-0.3,0.2-0.7,0.3-1,0L13,14
	c-0.2,0.3-0.2,0.7-0.2,1v10c0,0.6,0.2,1.2,0.6,1.6l0,0c0.4,0.4,1,0.7,1.6,0.7h10c0.6,0,1.2-0.3,1.6-0.7c0.4-0.4,0.7-1,0.7-1.6V15
	C27.3,14.6,27.2,14.3,27,14z"/>
</svg>
