<?xml version="1.0" encoding="utf-8"?>
<!-- Generator: Adobe Illustrator 21.1.0, SVG Export Plug-In . SVG Version: 6.00 Build 0)  -->
<svg version="1.1" id="Слой_1" xmlns="http://www.w3.org/2000/svg" xmlns:xlink="http://www.w3.org/1999/xlink" x="0px" y="0px"
	 viewBox="0 0 40 40" style="enable-background:new 0 0 40 40;" xml:space="preserve">
<style type="text/css">
	
		.st0{fill-rule:evenodd;clip-rule:evenodd;fill:none;stroke:#000000;stroke-width:1.9998;stroke-linecap:round;stroke-linejoin:round;stroke-miterlimit:22.9256;}
</style>
<path class="st0" d="M20,30c1.4,0,2.7-0.3,3.8-0.8 M20,20.2h-0.3 M15.5,20.2h-0.3 M24.5,20.2h-0.3 M29.3,23.8v5.4 M29.3,29.3h-5.4
	 M20,30c-1.4,0-2.7-0.3-3.8-0.8 M16.2,29.3c-1.2-0.5-2.3-1.2-3.2-2.2 M12.9,27.1c-0.9-0.9-1.7-2-2.2-3.2 M10.8,23.8
	C10.3,22.7,10,21.4,10,20 M10.8,16.2C10.3,17.4,10,18.7,10,20 M12.9,12.9c-0.9,0.9-1.7,2-2.2,3.2 M16.2,10.8
	c-1.2,0.5-2.3,1.2-3.2,2.2 M20,10c-1.4,0-2.7,0.3-3.8,0.8 M20,10c1.4,0,2.7,0.3,3.8,0.8 M23.8,10.8c1.2,0.5,2.3,1.2,3.2,2.2
	 M27.1,12.9c0.9,0.9,1.7,2,2.2,3.2 M29.3,16.2c0.5,1.2,0.8,2.5,0.8,3.8 M29.3,23.8c0.5-1.2,0.8-2.5,0.8-3.8"/>
</svg>
