<?xml version="1.0" encoding="utf-8"?>
<!-- Generator: Adobe Illustrator 21.1.0, SVG Export Plug-In . SVG Version: 6.00 Build 0)  -->
<svg version="1.1" id="Слой_1" xmlns="http://www.w3.org/2000/svg" xmlns:xlink="http://www.w3.org/1999/xlink" x="0px" y="0px"
	 viewBox="0 0 40 40" style="enable-background:new 0 0 40 40;" xml:space="preserve">
<style type="text/css">
	.st0{fill-rule:evenodd;clip-rule:evenodd;fill:#bababa;}
</style>
<path class="st0" d="M25.5,28.7H14.5c-0.4,0-0.8,0-1.2,0.1c-0.4,0.1-0.8,0.2-1.1,0.3l0,0c-0.4,0.2-0.7,0.3-1,0.6
	c-0.3,0.2-0.6,0.5-0.9,0.8l0,0c-0.3,0.3-0.5,0.6-0.7,0.9c-0.2,0.3-0.4,0.7-0.6,1c-0.2,0.5-0.8,0.8-1.3,0.5c-0.5-0.2-0.8-0.8-0.5-1.3
	c0.2-0.5,0.4-0.9,0.7-1.4c0.3-0.4,0.6-0.9,1-1.2l0,0c0.4-0.4,0.8-0.7,1.2-1c0.4-0.3,0.9-0.5,1.4-0.7l0,0c0.5-0.2,1-0.4,1.5-0.5
	c0.5-0.1,1-0.2,1.6-0.2h11.1c0.5,0,1.1,0.1,1.6,0.2c0.5,0.1,1,0.3,1.5,0.5l0,0c0.5,0.2,0.9,0.4,1.4,0.7c0.4,0.3,0.8,0.6,1.2,1l0,0
	c0.4,0.4,0.7,0.8,1,1.2c0.3,0.4,0.5,0.9,0.7,1.4c0.2,0.5,0,1.1-0.5,1.3c-0.5,0.2-1.1,0-1.3-0.5c-0.2-0.4-0.3-0.7-0.6-1
	c-0.2-0.3-0.5-0.6-0.7-0.9l0,0c-0.3-0.3-0.6-0.5-0.9-0.8c-0.3-0.2-0.7-0.4-1-0.6l0,0c-0.4-0.1-0.7-0.3-1.1-0.3
	C26.3,28.7,26,28.7,25.5,28.7L25.5,28.7z M20,7c2.2,0,4.2,0.9,5.7,2.3l0.1,0.1c1.4,1.4,2.3,3.4,2.3,5.6c0,2.2-0.9,4.2-2.3,5.7
	C24.2,22.1,22.2,23,20,23c-2.2,0-4.2-0.9-5.7-2.3C12.9,19.2,12,17.2,12,15c0-2.2,0.9-4.2,2.3-5.7l0,0C15.8,7.9,17.8,7,20,7L20,7z
	 M24.3,10.8C23.2,9.7,21.7,9,20,9c-1.7,0-3.2,0.7-4.2,1.8l0,0C14.7,11.9,14,13.4,14,15c0,1.7,0.7,3.2,1.8,4.2v0
	c1.1,1.1,2.6,1.8,4.2,1.8c1.7,0,3.2-0.7,4.2-1.8c1.1-1.1,1.8-2.6,1.8-4.2C26,13.4,25.4,11.9,24.3,10.8L24.3,10.8z"/>
</svg>
